{
  "images" : [
    {
      "filename" : "Simulator Screen Shot - iPhone 11 Pro Max - 2020-06-16 at 14.49.31.png",
      "idiom" : "universal",
      "scale" : "1x"
    },
    {
      "idiom" : "universal",
      "scale" : "2x"
    },
    {
      "idiom" : "universal",
      "scale" : "3x"
    }
  ],
  "info" : {
    "author" : "xcode",
    "version" : 1
  }
}
